Assignment 10 – Sentiment Analysis
…
Filter for words by sentiment using nrc: Emma, by Jane Austen

nrc_joy <- get_sentiments("nrc") %>% 
  filter(sentiment == "joy")

tidy_books %>%
  filter(book == "Emma") %>%
  inner_join(nrc_joy) %>%
  count(word, sort = TRUE)

## # A tibble: 303 x 2
##    word        n
##    <chr>   <int>
##  1 good      359
##  2 young     192
##  3 friend    166
##  4 hope      143
##  5 happy     125
##  6 love      117
##  7 deal       92
##  8 found      92
##  9 present    89
## 10 kind       82
## # … with 293 more rows
…
Add custom stop words: Jane Austen

custom_stop_words_ja <- bind_rows(tibble(word = c("miss"),  
                                      lexicon = c("custom")), 
                               stop_words)

custom_stop_words_ja

## # A tibble: 1,150 x 2
##    word        lexicon
##    <chr>       <chr>  
##  1 miss        custom 
##  2 a           SMART  
##  3 a's         SMART  
##  4 able        SMART  
##  5 about       SMART  
##  6 above       SMART  
##  7 according   SMART  
##  8 accordingly SMART  
##  9 across      SMART  
## 10 actually    SMART  
## # … with 1,140 more rows

Add custom stop words: Baruch Spinoza

custom_stop_words_sp <- bind_rows(tibble(word = c("mind", "order"),  
                                      lexicon = c("custom", "custom")), 
                               stop_words)

custom_stop_words_sp

## # A tibble: 1,151 x 2
##    word        lexicon
##    <chr>       <chr>  
##  1 mind        custom 
##  2 order       custom 
##  3 a           SMART  
##  4 a's         SMART  
##  5 able        SMART  
##  6 about       SMART  
##  7 above       SMART  
##  8 according   SMART  
##  9 accordingly SMART  
## 10 across      SMART  
## # … with 1,141 more rows
…
